{
  "development": {
      "port": 3306,
      "username": "b2fe7e699fae7a",
      "password": "2930ed17",
      "database": "heroku_35919af26763f8e",
      "host": "us-cdbr-iron-east-01.cleardb.net",
      "protocol": "mysql",
      "dialect": "mysql"
  },
  "test": {
    "port": 3306,
    "username": "root",
    "password": "",
    "database": "insider_oil_test",
    "host": "localhost",
    "protocol": "mysql",
    "dialect": "mysql"
  },
  "production": {    
    "port": 3306,
    "username": "b2fe7e699fae7a",
    "database": "heroku_35919af26763f8e",
    "protocol": "mysql",
    "dialect": "mysql"
  }
}

